{
  "tagFormat": "${version}",
  "verifyConditions": [
    "@semantic-release/gitlab",
    "@semantic-release/changelog",
    "@semantic-release/git"
  ],
  "prepare": [
    "@semantic-release/changelog",
    "@semantic-release/git"
  ],
  "success": false,
  "fail": false,
  "npmPublish": false,
  "publish": [
    "@semantic-release/gitlab"
  ],
  "plugins": [
    "@semantic-release/commit-analyzer",
    "@semantic-release/release-notes-generator",
    "@semantic-release/changelog",
    {
      "changelogFile": "CHANGELOG.md"
    },
    "@semantic-release/git",
    {
      "assets": [
        "CHANGELOG.md"
      ],
      "message": "chore(release): ${nextRelease.version} [skip ci]\n\n${nextRelease.notes}"
    }
  ]
}